<?xml version="1.0" encoding="UTF-8" standalone="no"?>
<!-- Created with Inkscape (http://www.inkscape.org/) -->

<svg
   width="155.575mm"
   height="155.575mm"
   viewBox="0 0 155.575 155.575"
   version="1.1"
   id="svg1580"
   inkscape:version="1.1.2 (0a00cf5339, 2022-02-04)"
   sodipodi:docname="board.svg"
   xmlns:inkscape="http://www.inkscape.org/namespaces/inkscape"
   xmlns:sodipodi="http://sodipodi.sourceforge.net/DTD/sodipodi-0.dtd"
   xmlns:xlink="http://www.w3.org/1999/xlink"
   xmlns="http://www.w3.org/2000/svg"
   xmlns:svg="http://www.w3.org/2000/svg">
  <sodipodi:namedview
     id="namedview1582"
     pagecolor="#ffffff"
     bordercolor="#666666"
     borderopacity="1.0"
     inkscape:pageshadow="2"
     inkscape:pageopacity="0.0"
     inkscape:pagecheckerboard="0"
     inkscape:document-units="mm"
     showgrid="false"
     inkscape:zoom="9.6513707"
     inkscape:cx="31.083668"
     inkscape:cy="586.91145"
     inkscape:window-width="1907"
     inkscape:window-height="985"
     inkscape:window-x="0"
     inkscape:window-y="0"
     inkscape:window-maximized="1"
     inkscape:current-layer="board"
     showguides="false" />
  <defs
     id="defs1577">
    <linearGradient
       id="linearGradient3347">
      <stop
         style="stop-color:#ff9e06;stop-opacity:1;"
         offset="0"
         id="stop3349" />
      <stop
         style="stop-color:#4d2f00;stop-opacity:0;"
         offset="1"
         id="stop3351" />
    </linearGradient>
    <linearGradient
       id="linearGradient3805">
      <stop
         style="stop-color:#000000;stop-opacity:1;"
         offset="0"
         id="stop3807" />
      <stop
         style="stop-color:#000000;stop-opacity:0;"
         offset="1"
         id="stop3809" />
    </linearGradient>
    <linearGradient
       id="linearGradient5980">
      <stop
         id="stop5982"
         offset="0"
         style="stop-color:#5f5f5f;stop-opacity:1;" />
      <stop
         id="stop5984"
         offset="1"
         style="stop-color:#282828;stop-opacity:1;" />
    </linearGradient>
    <linearGradient
       y2="48.373058"
       x2="18.801071"
       y1="19.698345"
       x1="110.0557"
       gradientTransform="matrix(2.823528,0,0,3.526906,-0.847057,-46.38333)"
       gradientUnits="userSpaceOnUse"
       id="linearGradient9275"
       xlink:href="#linearGradient5980"
       inkscape:collect="always" />
    <linearGradient
       y2="27.31226"
       x2="64.469719"
       y1="31.090103"
       x1="64.469719"
       gradientTransform="matrix(2.714178,0,0,2.432554,6.101662,-56.32397)"
       gradientUnits="userSpaceOnUse"
       id="linearGradient9272"
       xlink:href="#linearGradient3805"
       inkscape:collect="always" />
    <linearGradient
       y2="27.31226"
       x2="64.469719"
       y1="31.090103"
       x1="64.469719"
       gradientTransform="matrix(2.768853,0,0,2.0095,2.113062,-43.97032)"
       gradientUnits="userSpaceOnUse"
       id="linearGradient9269"
       xlink:href="#linearGradient3805"
       inkscape:collect="always" />
    <linearGradient
       y2="27.31226"
       x2="64.469719"
       y1="31.090103"
       x1="64.469719"
       gradientTransform="matrix(2.807907,0,0,0.387745,-0.868449,3.472276)"
       gradientUnits="userSpaceOnUse"
       id="linearGradient9266"
       xlink:href="#linearGradient3805"
       inkscape:collect="always" />
    <radialGradient
       r="58.197479"
       fy="69.649773"
       fx="64.25972"
       cy="69.649773"
       cx="64.25972"
       gradientTransform="matrix(2.823528,0,0,0.07049118,-1.411765,342.844)"
       gradientUnits="userSpaceOnUse"
       id="radialGradient9260"
       xlink:href="#linearGradient4088"
       inkscape:collect="always" />
    <linearGradient
       id="linearGradient4088"
       inkscape:collect="always">
      <stop
         id="stop4090"
         offset="0"
         style="stop-color:#ffffff;stop-opacity:1;" />
      <stop
         id="stop4092"
         offset="1"
         style="stop-color:#ffffff;stop-opacity:0;" />
    </linearGradient>
    <linearGradient
       y2="18.039442"
       x2="53.875332"
       y1="10.94359"
       x1="53.875332"
       gradientTransform="matrix(-2.823528,0,0,1.790558,360.8977,-20.94468)"
       gradientUnits="userSpaceOnUse"
       id="linearGradient9257"
       xlink:href="#linearGradient4088"
       inkscape:collect="always" />
    <linearGradient
       y2="65.441139"
       x2="5.0130639"
       y1="65.441139"
       x1="3.1331649"
       gradientTransform="matrix(2.823528,0,0,4.101981,-0.847057,-106.2122)"
       gradientUnits="userSpaceOnUse"
       id="linearGradient9254"
       xlink:href="#linearGradient4088"
       inkscape:collect="always" />
    <linearGradient
       y2="77.076073"
       x2="4.0731144"
       y1="30.039539"
       x1="4.0731144"
       spreadMethod="pad"
       gradientTransform="matrix(2.823528,0,0,4.134094,-0.847057,-109.4173)"
       gradientUnits="userSpaceOnUse"
       id="linearGradient9251"
       xlink:href="#linearGradient5936"
       inkscape:collect="always" />
    <linearGradient
       id="linearGradient5936"
       inkscape:collect="always">
      <stop
         id="stop5938"
         offset="0"
         style="stop-color:#292929;stop-opacity:1;" />
      <stop
         id="stop5940"
         offset="1"
         style="stop-color:#292929;stop-opacity:0;" />
    </linearGradient>
    <linearGradient
       y2="77.076073"
       x2="4.0731144"
       y1="101.15981"
       x1="3.8579068"
       spreadMethod="pad"
       gradientTransform="matrix(2.823528,0,0,4.134094,-0.847057,-109.4173)"
       gradientUnits="userSpaceOnUse"
       id="linearGradient9248"
       xlink:href="#linearGradient5936"
       inkscape:collect="always" />
    <radialGradient
       r="2.5993989"
       fy="101.34053"
       fx="5.3253045"
       cy="101.34053"
       cx="5.3253045"
       gradientTransform="matrix(0.939018,-1.252086,1.172306,1.563151,-109.6136,189.7232)"
       gradientUnits="userSpaceOnUse"
       id="radialGradient9245"
       xlink:href="#linearGradient4088"
       inkscape:collect="always" />
    <radialGradient
       r="59.410713"
       fy="18.80681"
       fx="64.910706"
       cy="24.828176"
       cx="64.410706"
       gradientTransform="matrix(7.059952,2.746438e-6,-8.552548e-7,4.562947,-274.737,-222.1361)"
       gradientUnits="userSpaceOnUse"
       id="radialGradient9242"
       xlink:href="#linearGradient4088"
       inkscape:collect="always" />
    <radialGradient
       r="59.410713"
       fy="18.80681"
       fx="64.910706"
       cy="24.828176"
       cx="64.410706"
       gradientTransform="matrix(7.059952,2.746438e-6,-8.552548e-7,4.562944,-274.737,-222.1361)"
       gradientUnits="userSpaceOnUse"
       id="radialGradient9239"
       xlink:href="#linearGradient4088"
       inkscape:collect="always" />
  </defs>
  <g
     inkscape:label="Layer 1"
     inkscape:groupmode="layer"
     id="layer1"
     transform="translate(45.836938,37.218395)">
    <g
       id="board"
       transform="matrix(0.52916666,0,0,0.52916666,-44.518364,-42.459321)"
       inkscape:label="#g6295">
      <g
         inkscape:label="Layer 1"
         id="g6297"
         transform="translate(-35.373684,-22.977778)">
        <g
           id="g10194">
          <path
             style="fill:#000000;fill-opacity:1;fill-rule:nonzero;stroke:none;stroke-width:0.25;stroke-linecap:round;stroke-linejoin:round;stroke-miterlimit:4;stroke-dashoffset:4;stroke-opacity:0.059633"
             d="M 16.879079,0 H 343.12092 C 352.47195,0 360,9.3002892 360,20.852675 V 339.14728 C 360,350.69968 352.47195,360 343.12092,360 H 16.879079 C 7.5280694,360 1.40625e-7,350.69968 1.40625e-7,339.14728 V 20.852675 C 1.40625e-7,9.3002892 7.5280694,0 16.879079,0 Z"
             id="rect1410"
             sodipodi:nodetypes="ccccccccc" />
          <path
             style="fill:url(#linearGradient9275);fill-opacity:1;fill-rule:nonzero;stroke:none;stroke-width:0.25;stroke-linecap:round;stroke-linejoin:round;stroke-miterlimit:4;stroke-dasharray:none;stroke-dashoffset:4;stroke-opacity:0.059633"
             d="M 19.147059,0.01761756 C 10.606757,0.823507 3.9705885,9.7571815 3.9705885,20.627994 V 335.4761 c 0,11.4055 7.3603945,20.61042 16.5000005,20.61042 H 339.35296 c 9.13961,0 16.49998,-9.20498 16.49998,-20.61042 V 57.219685 c -5.05482,2.141725 -7.38312,7.070082 -16.10024,5.468946 l -98.13008,0.590228 C 264.37663,50.217978 280.35933,25.116756 312.61764,0.01761756 H 20.470589 c -0.42842,0 -0.903515,-0.03963544 -1.32353,0 z"
             id="rect4999"
             sodipodi:nodetypes="cccccccccccc" />
          <rect
             style="opacity:0.389344;fill:url(#linearGradient9272);fill-opacity:1;fill-rule:nonzero;stroke:none;stroke-width:0.25;stroke-linecap:round;stroke-linejoin:round;stroke-miterlimit:4;stroke-dasharray:none;stroke-dashoffset:4;stroke-opacity:0.059633"
             id="rect5874"
             width="322.32428"
             height="18.379614"
             x="19.921928"
             y="10.114593"
             rx="0"
             ry="7.6139336" />
          <rect
             ry="6.289772"
             rx="0"
             y="10.913701"
             x="16.211721"
             height="15.183161"
             width="328.8172"
             id="rect5884"
             style="opacity:0.389344;fill:url(#linearGradient9269);fill-opacity:1;fill-rule:nonzero;stroke:none;stroke-width:0.25;stroke-linecap:round;stroke-linejoin:round;stroke-miterlimit:4;stroke-dasharray:none;stroke-dashoffset:4;stroke-opacity:0.059633" />
          <rect
             style="opacity:0.389344;fill:url(#linearGradient9266);fill-opacity:1;fill-rule:nonzero;stroke:none;stroke-width:0.25;stroke-linecap:round;stroke-linejoin:round;stroke-miterlimit:4;stroke-dasharray:none;stroke-dashoffset:4;stroke-opacity:0.059633"
             id="rect5888"
             width="333.45496"
             height="2.8125"
             x="13.429064"
             y="14.0625"
             rx="0"
             ry="1.7379632" />
          <path
             style="fill:#bb9f48;fill-opacity:1;fill-rule:nonzero;stroke:none;stroke-width:0.25;stroke-linecap:round;stroke-linejoin:round;stroke-miterlimit:4;stroke-dashoffset:4;stroke-opacity:0.059633"
             d="M 20.684877,14.0625 H 339.31513 c 4.08519,0 7.37395,4.942155 7.37395,11.081071 V 334.85645 c 0,6.13887 -3.28876,11.08105 -7.37395,11.08105 H 20.684877 c -4.085168,0 -7.37395,-4.94218 -7.37395,-11.08105 V 25.143571 c 0,-6.138916 3.288782,-11.081071 7.37395,-11.081071 z"
             id="rect2285"
             sodipodi:nodetypes="ccccccccc" />
          <rect
             style="opacity:0.680328;fill:url(#radialGradient9260);fill-opacity:1;fill-rule:nonzero;stroke:none;stroke-width:0.25;stroke-linecap:round;stroke-linejoin:round;stroke-miterlimit:4;stroke-dasharray:none;stroke-dashoffset:4;stroke-opacity:0.059633"
             id="rect3213"
             width="328.64456"
             height="8.2048168"
             x="15.705141"
             y="345.9375"
             rx="2.6151943"
             ry="2.6317406" />
          <path
             style="fill:url(#linearGradient9257);fill-opacity:1;fill-rule:evenodd;stroke:none;stroke-width:1px;stroke-linecap:butt;stroke-linejoin:miter;stroke-opacity:1"
             d="m 15.848224,2.0781079 c -6.274447,0 -13.6290414,4.54921 -14.8408209,9.1172921 -1.11599727,4.207009 0.3091763,9.4114 0.4637648,14.1171 C 1.0074031,15.214855 6.7568147,6.4897 15.848241,6.4897 c 104.053899,0 206.879249,-0.2941042 323.715769,-0.2941042 9.63568,0 12.52195,5.9801602 17.62349,11.4701432 0,-6.277332 -2.20095,-15.5876311 -13.91327,-15.5876311 -108.05122,0 -217.75035,0 -327.426006,0 z"
             id="path4100"
             sodipodi:nodetypes="cscsscss" />
          <rect
             style="opacity:0.606557;fill:url(#linearGradient9254);fill-opacity:1;fill-rule:nonzero;stroke:none;stroke-width:0.25;stroke-linecap:round;stroke-linejoin:round;stroke-miterlimit:4;stroke-dasharray:none;stroke-dashoffset:4;stroke-opacity:0.059633"
             id="rect5916"
             width="5.3079476"
             height="281.8912"
             x="7.9995203"
             y="21.2805"
             rx="13.164482"
             ry="0" />
          <rect
             ry="0"
             rx="0.83348835"
             y="16.425232"
             x="6.7842326"
             height="286.74649"
             width="6.5232334"
             id="rect5926"
             style="fill:url(#linearGradient9251);fill-opacity:1;fill-rule:nonzero;stroke:none;stroke-width:0.25;stroke-linecap:round;stroke-linejoin:round;stroke-miterlimit:4;stroke-dasharray:none;stroke-dashoffset:4;stroke-opacity:0.059633" />
          <rect
             style="fill:url(#linearGradient9248);fill-opacity:1;fill-rule:nonzero;stroke:none;stroke-width:0.25;stroke-linecap:round;stroke-linejoin:round;stroke-miterlimit:4;stroke-dasharray:none;stroke-dashoffset:4;stroke-opacity:0.059633"
             id="rect5950"
             width="6.5232334"
             height="289.68704"
             x="6.7842326"
             y="16.425232"
             rx="0.83348835"
             ry="0" />
          <path
             style="opacity:0.655738;fill:url(#radialGradient9245);fill-opacity:1;fill-rule:evenodd;stroke:none;stroke-width:1px;stroke-linecap:butt;stroke-linejoin:miter;stroke-opacity:1"
             d="m 9.5625861,336.74273 c 0.8845729,6.6602 4.4191029,9.78708 9.5421739,10.7957 l 3.180724,-6.55456 c -4.502237,0.83773 -7.783553,-1.80905 -8.819281,-8.6751 z"
             id="path5954"
             sodipodi:nodetypes="ccccc" />
          <path
             id="path3196"
             d="m 19.588236,14.079996 c -3.558282,0.837658 -6.264706,5.80934 -6.264706,11.632116 V 129.70873 C 45.848737,124.45624 187.39022,50.337197 233.11765,14.079996 H 20.647059 c -0.255323,0 -0.45739,-0.03937 -0.705882,0 -0.116481,0.01845 -0.238158,-0.02703 -0.352941,0 z M 345.52941,19.480619 C 226.27606,127.53615 311.60827,200.72181 346.67648,202.68639 V 25.712112 c 0,-2.304071 -0.42156,-4.422001 -1.14707,-6.231493 z"
             style="fill:url(#radialGradient9242);fill-opacity:1;fill-rule:nonzero;stroke:none;stroke-width:0.25;stroke-linecap:round;stroke-linejoin:round;stroke-miterlimit:4;stroke-dasharray:none;stroke-dashoffset:4;stroke-opacity:0.059633"
             sodipodi:nodetypes="cccccsccccc" />
          <path
             style="fill:url(#radialGradient9239);fill-opacity:1;fill-rule:nonzero;stroke:none;stroke-width:0.25;stroke-linecap:round;stroke-linejoin:round;stroke-miterlimit:4;stroke-dasharray:none;stroke-dashoffset:4;stroke-opacity:0.059633"
             d="M 19.588236,14.079997 C 16.029954,14.917659 13.32353,19.88934 13.32353,25.712111 V 129.70874 c 32.525207,-5.25251 65.466948,-1.61177 98.55883,6.36996 C 146.15322,97.279411 187.39022,50.337197 233.11765,14.079997 H 20.647059 c -0.255323,0 -0.45739,-0.03937 -0.705882,0 -0.116481,0.01845 -0.238158,-0.02703 -0.352941,0 z M 345.52941,19.480619 C 289.17883,67.919597 260.30886,123.74459 239.82352,178.31435 c 36.02527,12.27379 71.78475,22.40746 106.85296,24.37204 V 25.712111 c 0,-2.304068 -0.42156,-4.421998 -1.14707,-6.231492 z"
             id="rect2303" />
        </g>
        <path
           inkscape:tile-cy="48"
           inkscape:tile-cx="53.999969"
           inkscape:tile-h="35.999999"
           inkscape:tile-w="35.999938"
           id="rect10219"
           d="m 36.433735,36.433735 h 35.132469 v 35.13253 H 36.433735 Z"
           style="opacity:1;fill:#f7fadd;fill-opacity:0.280899;stroke:#0d1f31;stroke-width:0.867469;stroke-linecap:butt;stroke-linejoin:miter;stroke-miterlimit:4;stroke-dashoffset:0;stroke-opacity:1" />
        <path
           id="rect10478"
           d="M 34,34.000002 H 326 V 326 H 34 Z"
           style="opacity:1;fill:none;fill-opacity:1;stroke:#33414b;stroke-width:2;stroke-linecap:butt;stroke-linejoin:miter;stroke-miterlimit:4;stroke-dashoffset:0;stroke-opacity:1" />
        <use
           height="360"
           width="360"
           id="use10352"
           transform="translate(0,36)"
           xlink:href="#rect10219"
           inkscape:tiled-clone-of="#rect10219"
           y="0"
           x="0" />
        <use
           height="360"
           width="360"
           id="use10354"
           transform="translate(0,72)"
           xlink:href="#rect10219"
           inkscape:tiled-clone-of="#rect10219"
           y="0"
           x="0" />
        <use
           height="360"
           width="360"
           id="use10356"
           transform="translate(0,108)"
           xlink:href="#rect10219"
           inkscape:tiled-clone-of="#rect10219"
           y="0"
           x="0" />
        <use
           height="360"
           width="360"
           id="use10358"
           transform="translate(0,144)"
           xlink:href="#rect10219"
           inkscape:tiled-clone-of="#rect10219"
           y="0"
           x="0" />
        <use
           height="360"
           width="360"
           id="use10360"
           transform="translate(0,180)"
           xlink:href="#rect10219"
           inkscape:tiled-clone-of="#rect10219"
           y="0"
           x="0" />
        <use
           height="360"
           width="360"
           id="use10362"
           transform="translate(0,216)"
           xlink:href="#rect10219"
           inkscape:tiled-clone-of="#rect10219"
           y="0"
           x="0" />
        <use
           height="360"
           width="360"
           id="use10364"
           transform="translate(0,252)"
           xlink:href="#rect10219"
           inkscape:tiled-clone-of="#rect10219"
           y="0"
           x="0" />
        <use
           height="360"
           width="360"
           id="use10366"
           transform="translate(35.99994)"
           xlink:href="#rect10219"
           inkscape:tiled-clone-of="#rect10219"
           y="0"
           x="0" />
        <use
           height="360"
           width="360"
           id="use10368"
           transform="translate(35.99994,36)"
           xlink:href="#rect10219"
           inkscape:tiled-clone-of="#rect10219"
           y="0"
           x="0" />
        <use
           height="360"
           width="360"
           id="use10370"
           transform="translate(35.99994,72)"
           xlink:href="#rect10219"
           inkscape:tiled-clone-of="#rect10219"
           y="0"
           x="0" />
        <use
           height="360"
           width="360"
           id="use10372"
           transform="translate(35.99994,108)"
           xlink:href="#rect10219"
           inkscape:tiled-clone-of="#rect10219"
           y="0"
           x="0" />
        <use
           height="360"
           width="360"
           id="use10374"
           transform="translate(35.99994,144)"
           xlink:href="#rect10219"
           inkscape:tiled-clone-of="#rect10219"
           y="0"
           x="0" />
        <use
           height="360"
           width="360"
           id="use10376"
           transform="translate(35.99994,180)"
           xlink:href="#rect10219"
           inkscape:tiled-clone-of="#rect10219"
           y="0"
           x="0" />
        <use
           height="360"
           width="360"
           id="use10378"
           transform="translate(35.99994,216)"
           xlink:href="#rect10219"
           inkscape:tiled-clone-of="#rect10219"
           y="0"
           x="0" />
        <use
           height="360"
           width="360"
           id="use10380"
           transform="translate(35.99994,252)"
           xlink:href="#rect10219"
           inkscape:tiled-clone-of="#rect10219"
           y="0"
           x="0" />
        <use
           height="360"
           width="360"
           id="use10382"
           transform="translate(71.99988)"
           xlink:href="#rect10219"
           inkscape:tiled-clone-of="#rect10219"
           y="0"
           x="0" />
        <use
           height="360"
           width="360"
           id="use10384"
           transform="translate(71.99988,36)"
           xlink:href="#rect10219"
           inkscape:tiled-clone-of="#rect10219"
           y="0"
           x="0" />
        <use
           height="360"
           width="360"
           id="use10386"
           transform="translate(71.99988,72)"
           xlink:href="#rect10219"
           inkscape:tiled-clone-of="#rect10219"
           y="0"
           x="0" />
        <use
           height="360"
           width="360"
           id="use10388"
           transform="translate(71.99988,108)"
           xlink:href="#rect10219"
           inkscape:tiled-clone-of="#rect10219"
           y="0"
           x="0" />
        <use
           height="360"
           width="360"
           id="use10390"
           transform="translate(71.99988,144)"
           xlink:href="#rect10219"
           inkscape:tiled-clone-of="#rect10219"
           y="0"
           x="0" />
        <use
           height="360"
           width="360"
           id="use10392"
           transform="translate(71.99988,180)"
           xlink:href="#rect10219"
           inkscape:tiled-clone-of="#rect10219"
           y="0"
           x="0" />
        <use
           height="360"
           width="360"
           id="use10394"
           transform="translate(71.99988,216)"
           xlink:href="#rect10219"
           inkscape:tiled-clone-of="#rect10219"
           y="0"
           x="0" />
        <use
           height="360"
           width="360"
           id="use10396"
           transform="translate(71.99988,252)"
           xlink:href="#rect10219"
           inkscape:tiled-clone-of="#rect10219"
           y="0"
           x="0" />
        <use
           height="360"
           width="360"
           id="use10398"
           transform="translate(107.9998)"
           xlink:href="#rect10219"
           inkscape:tiled-clone-of="#rect10219"
           y="0"
           x="0" />
        <use
           height="360"
           width="360"
           id="use10400"
           transform="translate(107.9998,36)"
           xlink:href="#rect10219"
           inkscape:tiled-clone-of="#rect10219"
           y="0"
           x="0" />
        <use
           height="360"
           width="360"
           id="use10402"
           transform="translate(107.9998,72)"
           xlink:href="#rect10219"
           inkscape:tiled-clone-of="#rect10219"
           y="0"
           x="0" />
        <use
           height="360"
           width="360"
           id="use10404"
           transform="translate(107.9998,108)"
           xlink:href="#rect10219"
           inkscape:tiled-clone-of="#rect10219"
           y="0"
           x="0" />
        <use
           height="360"
           width="360"
           id="use10406"
           transform="translate(107.9998,144)"
           xlink:href="#rect10219"
           inkscape:tiled-clone-of="#rect10219"
           y="0"
           x="0" />
        <use
           height="360"
           width="360"
           id="use10408"
           transform="translate(107.9998,180)"
           xlink:href="#rect10219"
           inkscape:tiled-clone-of="#rect10219"
           y="0"
           x="0" />
        <use
           height="360"
           width="360"
           id="use10410"
           transform="translate(107.9998,216)"
           xlink:href="#rect10219"
           inkscape:tiled-clone-of="#rect10219"
           y="0"
           x="0" />
        <use
           height="360"
           width="360"
           id="use10412"
           transform="translate(107.9998,252)"
           xlink:href="#rect10219"
           inkscape:tiled-clone-of="#rect10219"
           y="0"
           x="0" />
        <use
           height="360"
           width="360"
           id="use10414"
           transform="translate(143.9998)"
           xlink:href="#rect10219"
           inkscape:tiled-clone-of="#rect10219"
           y="0"
           x="0" />
        <use
           height="360"
           width="360"
           id="use10416"
           transform="translate(143.9998,36)"
           xlink:href="#rect10219"
           inkscape:tiled-clone-of="#rect10219"
           y="0"
           x="0" />
        <use
           height="360"
           width="360"
           id="use10418"
           transform="translate(143.9998,72)"
           xlink:href="#rect10219"
           inkscape:tiled-clone-of="#rect10219"
           y="0"
           x="0" />
        <use
           height="360"
           width="360"
           id="use10420"
           transform="translate(143.9998,108)"
           xlink:href="#rect10219"
           inkscape:tiled-clone-of="#rect10219"
           y="0"
           x="0" />
        <use
           height="360"
           width="360"
           id="use10422"
           transform="translate(143.9998,144)"
           xlink:href="#rect10219"
           inkscape:tiled-clone-of="#rect10219"
           y="0"
           x="0" />
        <use
           height="360"
           width="360"
           id="use10424"
           transform="translate(143.9998,180)"
           xlink:href="#rect10219"
           inkscape:tiled-clone-of="#rect10219"
           y="0"
           x="0" />
        <use
           height="360"
           width="360"
           id="use10426"
           transform="translate(143.9998,216)"
           xlink:href="#rect10219"
           inkscape:tiled-clone-of="#rect10219"
           y="0"
           x="0" />
        <use
           height="360"
           width="360"
           id="use10428"
           transform="translate(143.9998,252)"
           xlink:href="#rect10219"
           inkscape:tiled-clone-of="#rect10219"
           y="0"
           x="0" />
        <use
           height="360"
           width="360"
           id="use10430"
           transform="translate(179.9997)"
           xlink:href="#rect10219"
           inkscape:tiled-clone-of="#rect10219"
           y="0"
           x="0" />
        <use
           height="360"
           width="360"
           id="use10432"
           transform="translate(179.9997,36)"
           xlink:href="#rect10219"
           inkscape:tiled-clone-of="#rect10219"
           y="0"
           x="0" />
        <use
           height="360"
           width="360"
           id="use10434"
           transform="translate(179.9997,72)"
           xlink:href="#rect10219"
           inkscape:tiled-clone-of="#rect10219"
           y="0"
           x="0" />
        <use
           height="360"
           width="360"
           id="use10436"
           transform="translate(179.9997,108)"
           xlink:href="#rect10219"
           inkscape:tiled-clone-of="#rect10219"
           y="0"
           x="0" />
        <use
           height="360"
           width="360"
           id="use10438"
           transform="translate(179.9997,144)"
           xlink:href="#rect10219"
           inkscape:tiled-clone-of="#rect10219"
           y="0"
           x="0" />
        <use
           height="360"
           width="360"
           id="use10440"
           transform="translate(179.9997,180)"
           xlink:href="#rect10219"
           inkscape:tiled-clone-of="#rect10219"
           y="0"
           x="0" />
        <use
           height="360"
           width="360"
           id="use10442"
           transform="translate(179.9997,216)"
           xlink:href="#rect10219"
           inkscape:tiled-clone-of="#rect10219"
           y="0"
           x="0" />
        <use
           height="360"
           width="360"
           id="use10444"
           transform="translate(179.9997,252)"
           xlink:href="#rect10219"
           inkscape:tiled-clone-of="#rect10219"
           y="0"
           x="0" />
        <use
           height="360"
           width="360"
           id="use10446"
           transform="translate(215.9996)"
           xlink:href="#rect10219"
           inkscape:tiled-clone-of="#rect10219"
           y="0"
           x="0" />
        <use
           height="360"
           width="360"
           id="use10448"
           transform="translate(215.9996,36)"
           xlink:href="#rect10219"
           inkscape:tiled-clone-of="#rect10219"
           y="0"
           x="0" />
        <use
           height="360"
           width="360"
           id="use10450"
           transform="translate(215.9996,72)"
           xlink:href="#rect10219"
           inkscape:tiled-clone-of="#rect10219"
           y="0"
           x="0" />
        <use
           height="360"
           width="360"
           id="use10452"
           transform="translate(215.9996,108)"
           xlink:href="#rect10219"
           inkscape:tiled-clone-of="#rect10219"
           y="0"
           x="0" />
        <use
           height="360"
           width="360"
           id="use10454"
           transform="translate(215.9996,144)"
           xlink:href="#rect10219"
           inkscape:tiled-clone-of="#rect10219"
           y="0"
           x="0" />
        <use
           height="360"
           width="360"
           id="use10456"
           transform="translate(215.9996,180)"
           xlink:href="#rect10219"
           inkscape:tiled-clone-of="#rect10219"
           y="0"
           x="0" />
        <use
           height="360"
           width="360"
           id="use10458"
           transform="translate(215.9996,216)"
           xlink:href="#rect10219"
           inkscape:tiled-clone-of="#rect10219"
           y="0"
           x="0" />
        <use
           height="360"
           width="360"
           id="use10460"
           transform="translate(215.9996,252)"
           xlink:href="#rect10219"
           inkscape:tiled-clone-of="#rect10219"
           y="0"
           x="0" />
        <use
           height="360"
           width="360"
           id="use10462"
           transform="translate(251.9996)"
           xlink:href="#rect10219"
           inkscape:tiled-clone-of="#rect10219"
           y="0"
           x="0" />
        <use
           height="360"
           width="360"
           id="use10464"
           transform="translate(251.9996,36)"
           xlink:href="#rect10219"
           inkscape:tiled-clone-of="#rect10219"
           y="0"
           x="0" />
        <use
           height="360"
           width="360"
           id="use10466"
           transform="translate(251.9996,72)"
           xlink:href="#rect10219"
           inkscape:tiled-clone-of="#rect10219"
           y="0"
           x="0" />
        <use
           height="360"
           width="360"
           id="use10468"
           transform="translate(251.9996,108)"
           xlink:href="#rect10219"
           inkscape:tiled-clone-of="#rect10219"
           y="0"
           x="0" />
        <use
           height="360"
           width="360"
           id="use10470"
           transform="translate(251.9996,144)"
           xlink:href="#rect10219"
           inkscape:tiled-clone-of="#rect10219"
           y="0"
           x="0" />
        <use
           height="360"
           width="360"
           id="use10472"
           transform="translate(251.9996,180)"
           xlink:href="#rect10219"
           inkscape:tiled-clone-of="#rect10219"
           y="0"
           x="0" />
        <use
           height="360"
           width="360"
           id="use10474"
           transform="translate(251.9996,216)"
           xlink:href="#rect10219"
           inkscape:tiled-clone-of="#rect10219"
           y="0"
           x="0" />
        <use
           height="360"
           width="360"
           id="use10476"
           transform="translate(251.9996,252)"
           xlink:href="#rect10219"
           inkscape:tiled-clone-of="#rect10219"
           y="0"
           x="0" />
      </g>
      <g
         inkscape:label="board"
         id="layer2-7" />
    </g>
  </g>
</svg>
